3 Transformaciones | Programación en R
…
## ── Attaching core tidyverse packages ──────────────────────── tidyverse 2.0.0 ──
## ✔ dplyr     1.1.2     ✔ readr     2.1.4
## ✔ forcats   1.0.0     ✔ stringr   1.5.0
## ✔ ggplot2   3.4.2     ✔ tibble    3.2.1
## ✔ lubridate 1.9.2     ✔ tidyr     1.3.0
## ✔ purrr     1.0.1     
## ── Conflicts ────────────────────────────────────────── tidyverse_conflicts() ──
## ✖ dplyr::filter() masks stats::filter()
## ✖ dplyr::lag()    masks stats::lag()
## ℹ Use the conflicted package (<http://conflicted.r-lib.org/>) to force all conflicts to become errors

flights

## # A tibble: 336,776 × 19
##     year month   day dep_time sched_dep_time dep_delay arr_time sched_arr_time
##    <int> <int> <int>    <int>          <int>     <dbl>    <int>          <int>
##  1  2013     1     1      517            515         2      830            819
##  2  2013     1     1      533            529         4      850            830
##  3  2013     1     1      542            540         2      923            850
##  4  2013     1     1      544            545        -1     1004           1022
##  5  2013     1     1      554            600        -6      812            837
##  6  2013     1     1      554            558        -4      740            728
##  7  2013     1     1      555            600        -5      913            854
##  8  2013     1     1      557            600        -3      709            723
##  9  2013     1     1      557            600        -3      838            846
## 10  2013     1     1      558            600        -2      753            745
## # ℹ 336,766 more rows
## # ℹ 11 more variables: arr_delay <dbl>, carrier <chr>, flight <int>,
## #   tailnum <chr>, origin <chr>, dest <chr>, air_time <dbl>, distance <dbl>,
## #   hour <dbl>, minute <dbl>, time_hour <dttm>
…
Seleccionar variables (columnas) con select(),

Crear nuevas variables (columnas) aplicando transformaciones (funciones) a las ya existentes con mutate(),

Resumir la información de muchos valores con summarise(),

… puede ser usado con group_by() que agrupa las observaciones de acuerdo a cierta variable categórica.

3.2.1 Filtrar filas

Con filter() podemos filtrar/extraer las observaciones de acuerdo a características de una o varias variables, usando los operadores de comparación lógicos. Por ejemplo, para filtrar todos los vuelos ocurridos en los 1eros de Enero:

filter(flights, month == 1, day == 1)

## # A tibble: 842 × 19
##     year month   day dep_time sched_dep_time dep_delay arr_time sched_arr_time
##    <int> <int> <int>    <int>          <int>     <dbl>    <int>          <int>
##  1  2013     1     1      517            515         2      830            819
##  2  2013     1     1      533            529         4      850            830
##  3  2013     1     1      542            540         2      923            850
##  4  2013     1     1      544            545        -1     1004           1022
##  5  2013     1     1      554            600        -6      812            837
##  6  2013     1     1      554            558        -4      740            728
##  7  2013     1     1      555            600        -5      913            854
##  8  2013     1     1      557            600        -3      709            723
##  9  2013     1     1      557            600        -3      838            846
## 10  2013     1     1      558            600        -2      753            745
## # ℹ 832 more rows
## # ℹ 11 more variables: arr_delay <dbl>, carrier <chr>, flight <int>,
## #   tailnum <chr>, origin <chr>, dest <chr>, air_time <dbl>, distance <dbl>,
## #   hour <dbl>, minute <dbl>, time_hour <dttm>
…
3.2.3.1 Ejercicios

¿Cuál será la forma más corta de seleccionar: dep_time, dep_delay, arr_time, arr_delay?

Queremos seleccionar las variables indicadas en el vector vars. Hint: usar any_of.

vars <- c("year", "month", "day", "dep_delay", "arr_delay")

¿QUé pasa con el siguiente código? ¿Debería seleccionar todas esas variables? Hint: mirar el argumento ignore.case.

select(flights, contains("TiMe"))

## # A tibble: 336,776 × 6
##    dep_time sched_dep_time arr_time sched_arr_time air_time time_hour          
##       <int>          <int>    <int>          <int>    <dbl> <dttm>             
##  1      517            515      830            819      227 2013-01-01 05:00:00
##  2      533            529      850            830      227 2013-01-01 05:00:00
##  3      542            540      923            850      160 2013-01-01 05:00:00
##  4      544            545     1004           1022      183 2013-01-01 05:00:00
##  5      554            600      812            837      116 2013-01-01 06:00:00
##  6      554            558      740            728      150 2013-01-01 05:00:00
##  7      555            600      913            854      158 2013-01-01 06:00:00
##  8      557            600      709            723       53 2013-01-01 06:00:00
##  9      557            600      838            846      140 2013-01-01 06:00:00
## 10      558            600      753            745      138 2013-01-01 06:00:00
## # ℹ 336,766 more rows
…
Estamos agrupando por destino (dest) y luego contamos la cantidad de vuelos que van a cada destino (count), la distancia media (dist) entre los aeropuertos de origen y el destino, y el retraso medio en minutos de la llegada (delay). Habrás notado que filtramos los destinos con pocas visitas (pueden ser outliers) y Honolulu (está muy lejos de casi cualquier aeropuerto), para eliminar un poco de “ruido” en nuestro plot (intenta omitir el filtrado y notarás que es más difícil la interpretación). De este gráfico entendemos que mientras más cercano el destino, mayor probabilidad de retraso. Sin embargo, los vuelos a destinos lejanos parecen presentar menos retrasos (tal vez en el aire puedan compensar el retraso).

Otros ejemplos usando varias variables de agrupamiento:

daily <- group_by(flights, year, month, day)
(per_day   <- summarise(daily, flights = n()))

## `summarise()` has grouped output by 'year', 'month'. You can override using the
## `.groups` argument.

## # A tibble: 365 × 4
## # Groups:   year, month [12]
##     year month   day flights
##    <int> <int> <int>   <int>
##  1  2013     1     1     842
##  2  2013     1     2     943
##  3  2013     1     3     914
##  4  2013     1     4     915
##  5  2013     1     5     720
##  6  2013     1     6     832
##  7  2013     1     7     933
##  8  2013     1     8     899
##  9  2013     1     9     902
## 10  2013     1    10     932
## # ℹ 355 more rows
…
